// 9258
//== The Stanford Prison Experiment, Pt 2
== Розділ 52. Стенфордський Тюремний Експеримент, ч.2

// 9259
//The adrenaline was already flowing in Harry’s veins, his heart already
//hammering in his chest, there in that darkened and bankrupt store. Professor
//Quirrell had finished explaining, and in one hand, Harry held a tiny wooden
//twig that would be the key. This was it, this was the day and the moment when
//Harry started acting the part. His first true adventure, a dungeon to be
//pierced, an evil government to be defied, a maiden in distress to be rescued.
//Harry should have been more frightened, more reluctant, but instead he felt
//only that it was time and past time to start becoming the people he had read
//about in his books; to begin his journey toward what he had always known he was
//meant to be, a hero. To take the first step on the road that led to Kimball
//Kinnison and Captain Picard and Liono of Thundera and definitely __not__
//Raistlin Majere. So far as Harry’s brain knew from watching early morning
//cartoons, when you grew up you were supposed to gain amazing powers and save
//the universe, that was what Harry’s brain had seen adults doing and adopted as
//its role model for the maturation process, and Harry very much wanted to start
//growing up.
// hedrok про імена:
// Kimball Kinnison 027:5332
// Captain Picard - тут єдина зустріч
//    переклад взяв тут: https://uk.wikipedia.org/wiki/Жан-Люк_Пікар
// Liono of Thundera 064:11513
//    переклад взяв з https://uk.wikipedia.org/wiki/Громові_коти_(2011)
// Raistlin Majere 078:14074
//    нічого не знайшов, просто переклав
Адреналін вже переповнював кров Гаррі, його серце калатало в грудях, у цій
темній збанкрутілій крамниці. Професор Квірел завершив був пояснення, і тепер
Гаррі тримав в одній руці крихітну галузку, що була ключем. Ось воно: цього
дня, цієї миті починалося справжнє життя Гаррі. Його перша справжня пригода,
його перший прорив у підземелля, перший скинутий ним злий уряд, його перший
порятунок принцеси з замку. Гаррі мав би бути наляканішим, обережнішим, проте
натомість відчував лише, що вже час, і давно вже був час ставати гідним
людей, про яких він читав у книжках, починати свій шлях перетворення на
того, ким він завжди знав, що стане, -- на героя. Зробити перший крок у напрямку
до Кімбола Кінісана, капітана Пікара, Лайона-О з Тандери і точно __не__ Рейсліна
Маджере. З ранкових мультфільмів мозок Гаррі знав, що коли дорослішаєш, маєш
отримати неймовірну могутність та врятувати всесвіт. Ось таку модель поведінки
мозок Гаррі прийняв для дорослішання, а Гаррі вже дуже хотів почати
дорослішати.

// 9260
//And if the pattern of the story called for the hero to lose some part of his
//innocence, as the result of his first adventure; then for now, at least, in
//this still-innocent moment, it seemed time and past time for him to experience
//that pain. Like casting off clothes too small for him; or like finally
//advancing to the next stage of the game, after being stuck for eleven years on
//world 3, level 2 of Super Mario Brothers.
І якщо шаблонний сюжет вимагав, щоб герой втратив частину своєї невинності під
час першої пригоди, то принаймні зараз, у цю мить, доки він досі невинний, йому
здавалося, що вже давно час пережити цей біль. Ніби скинути одяг, що для нього
замалий, чи як нарешті перейти на наступний рівень гри після нескінченних
одинадцяти років третього етапу, другого рівня гри в Супер Маріо.

// 9261
//Harry had read enough novels to suspect that he wouldn’t feel this enthusiastic
//afterward, so he was enjoying it while it lasted.
Гаррі прочитав був достатньо книжок, щоб розуміти, що цей ентузіазм невдовзі
зникне, тому насолоджувався ним, доки міг.

// 9262
//There was a popping sound as something near Harry disappeared, and then there
//was no more time for heroic brooding.
Пролунав ляскіт, і щось поряд з Гаррі зникло, і час для героїчних думок
скінчився.

// 9263
//Harry’s hand snapped the small wooden twig.
Гаррі переломив галузку рукою.

// 9264
//A hook yanked motionlessly at Harry’s abdomen as the portkey activated, feeling
//like a much harder pull this time than the smaller transports between the
//Hogwarts grounds and Diagon Alley -
Коли летиключ активувався, Гаррі ніби гак зачепив за живіт, і цього разу смикнув його
значно сильніше, ніж коли вони переміщувалися між Гоґвортсом та алеєю Діаґон...

// 9265
//- and dropped him into the middle of a huge roll of thunder dying away, and a
//lash of cold rain whipping him across the face, the water coating Harry’s
//glasses and blinding him in an instant, turning the world into a blur even as
//he began to fall toward the raging ocean waves far below.
...його відпустило посеред оглушливого грому та зливи. Його вдарило водою по
обличчю, волога вкрила окуляри, і на мить його засліпило, світ став невиразним,
і він почав падати вниз до далеких бурхливих хвиль океану.

// 9266
//He had arrived high, high, high above the empty North Sea.
Він прибув дуже-дуже-дуже високо над безкраїм Північним морем.

// 9267
//The shock of the blasting storm almost made Harry let go of the broomstick that
//Professor Quirrell had given him, which would not have been a good idea. It
//took nearly a full second for Harry to get his wits together and bring his
//broomstick back up in an easy swoop.
Через неочікувану люту бурю Гаррі ледь не випустив з рук мітлу, що її дав йому
професор Квірел, а це було б невдалим рішенням. Лише за секунду
Гаррі опанував себе і одним плавним рухом повернувся на мітлі назад.

// 9268
//“I’m here,” said an unfamiliar voice from a patch of empty air above him; low
//and gravelly, the voice of the sallow lanky bearded man Professor Quirrell had
//Polyjuiced into before Disillusioning himself and his broomstick.
-- Я тут, -- пролунав незнайомий голос з порожнього повітря над ним.

Голос був низьким та грубим, і належав жовтуватому довговʼязому бородатому
чолов'язі, у якого багатозільнувся професор Квірел перед тим, як розілюзнити
себе й свою мітлу.

// 9269
//“I’m here,” Harry said from beneath the Cloak of Invisibility. He hadn’t used
//Polyjuice himself. Wearing a different body hindered your magic, and Harry
//might need all of his little magic about him; thus the plan called for Harry to
//stay invisible at nearly all times, instead of Polyjuicing.
-- Я тут, -- відгукнувся Гаррі з-під Плаща невидимості. Сам він не пив
багатозільної настоянки. Чуже тіло перешкоджало магії, а Гаррі могла
знадобитися вся його магія, хай як її було мало. Тому, згідно з планом, Гаррі мав
бути невидимим майже весь час, а не використовувати багатозільну настоянку.

// 9270
//(Neither of them had spoken the other’s name. You simply didn’t use your names
//at any point during an illegal mission, even invisibly hovering over an
//anonymous patch of water in the North Sea. You simply didn’t. It would be
//stupid.)
(Жоден з них не називав іншого на імʼя. Бо впродовж незаконної місії імен
не називають, навіть якщо ти невидимий і висиш над нічим не примітним клаптиком
Північного моря. Цього просто не роблять. Це було б по-дурному.)

// 9271
//Carefully keeping a grip on the broomstick with one hand, while the rain and
//wind howled around him, Harry raised his wand in an equally careful grip and
//Imperviused his glasses.
Гаррі, старанно вхопивши мітлу однією рукою, доки вітер та дощ завивали навкруги,
підвів паличку, яку він тримав не менш старанно, та імпервіуснув окуляри.

// 9272
//Then, with the lenses clear, Harry looked around.
Потім, уже з чистими лінзами, Гаррі роззирнувся довкола.

// 9273
//He was surrounded by wind and rain, it might have been five degrees Celsius if
//he was lucky; he’d already had a Warming Charm cast on himself just from being
//outside in February, but it wasn’t standing up to the driving cold droplets.
//Worse than snow, the rain soaked into every exposed surface. The Cloak of
//Invisibility turned all of you invisible, but it didn’t __cover__ all of
//you, and that meant it didn’t protect all of you from rain. Harry’s face was
//exposed to the full force of the driven water, and it was driving straight into
//his neck and soaking down into his shirt, also the sleeves of his robes and the
//cuffs of his pants and his shoes, the water took every bit of cloth as an
//avenue to sneak in.
А навколо був вітер та дощ, у найкращому разі пʼять градусів за Цельсієм. Гаррі
вже був під дією чарів тепла, бо застосував їх просто щоб вийти на вулицю в
лютому, проте вони аж ніяк не могли витримати несамовитих крапель. Дощ був
дошкульнішим за сніг -- робив вогкою будь-яку відкриту поверхню. Плащ
невидимості робив тебе всього невидимим, проте __не огортав__ тебе всього і,
відповідно, не захищав від дощу. Ніщо не перешкоджало потоку води заливати його
обличчя, шию, заливати футболку, а також рукави мантії, вилоги штанів та
взуття. Волога не обминула жодного клаптику тканини, що була на ньому.

// 9274
//“This way,” said the Polyjuiced voice, and a spark of green light lit up in
//front of Harry’s broomstick, and then darted away in a direction that seemed to
//Harry like every other direction.
-- Сюди, -- промовив голос під дією багатозільної настоянки, і навпроти мітли
Гаррі засяяла цятка зеленого світла, а ще за мить цятка метнулася в якомусь
напрямку, що з точки зору Гаррі нічим не відрізнявся від інших.

// 9275
//Through the blinding rain, Harry followed. He lost it sometimes, that small
//green spark, and each time he did, Harry called out, and the spark would
//reappear in front of him a few seconds later.
Гаррі рушив за нею крізь сліпучий дощ. Подеколи він губив її -- цю дрібну
зелену цятку -- але щоразу, коли таке траплялося, він гукав, і кількома
секундами потому цятка знову з'являлася навпроти нього.

// 9276
//When Harry had caught the trick of following the spark, it accelerated, and
//Harry kicked the broomstick into high gear and followed. The rain whipped him
//harder, feeling like Harry imagined it must feel to get a faceful of shotgun
//pellets, but his glasses stayed clear and protected his eyes.
Коли Гаррі призвичаївся до руху цятки, та прискорилася, і Гаррі вичавив з мітли
всю можливу швидкість та рушив за нею. Дощ шмагав його сильніше, Гаррі гадав,
що якщо твоє лице обстрілюють дробом, то відчуття мають бути саме такими. Але
окуляри лишалися прозорими та захищали його очі.

// 9277
//It was only a few minutes later, at the broomstick’s full speed, that Harry
//caught a glimpse of a huge shadow through the rain, towering far across the
//waters.
Лише за кілька хвилин на повній швидкості мітли Гаррі побачив за дощем
величезну тінь, що височіла віддалік над водою.

// 9278
//And felt a distant, hollow echo of emptiness radiating from where Death waited,
//washing over Harry’s mind and parting around it, like a wave breaking on stone.
//Harry knew his enemy this time, and his will was steel and all of the light.
І відчув далеке відлуння порожнечі, що ширилася від місця, де чигала Смерть,
омивала розум Гаррі та розходилася навколо нього, ніби хвиля, що розбивається
об камінь. Цього разу Гаррі знав свого ворога, і його воля була незламною та
сповненою світла.

// 9279
//“I can already feel the Dementors,” said the gravelly voice of the Polyjuiced
//Quirrell. “I did not expect that, not this soon.”
-- Я вже відчуваю дементорів, -- пролунав грубий голос багатозільненого Квірела.
-- Я цього не очікував, не на такій відстані.

// 9280
//“Think of the stars,” Harry said, over a distant rumble of thunder. “Don’t
//allow any anger in you, nothing negative, just think of the stars, what it
//feels like to forget yourself and fall bodilessly through space. Hold to that
//thought like an Occlumency barrier across your entire mind. The Dementors will
//have some trouble reaching past that.”
-- Думайте про зірки, -- намагався перекричати далекий грім Гаррі. -- Звільніться
від будь-якої злоби, не допускайте нічого негативного -- думайте лише про зірки,
про те, як це -- відчувати себе безтілесною сутністю серед зірок. Тримайте цю
думку мов бар'єр блокології навколо всього свого розуму. Дементорам буде складно
проникнути крізь це.

// 9281
//There was silence for a moment, then, “Interesting.”
На деякий час запала мовчанка, потім почулося слово "`цікаво`".

// 9282
//The green spark lifted, and Harry inclined his broomstick slightly upward to
//follow, even as it steered them into a fogbank, a cloud hovering low on the
//waters.
Зелена цятка здійнялася, і Гаррі трохи нахилив мітлу вгору, щоб летіти слідом,
хоча через це мав потрапити до скупчення туману -- хмари, що висіла над водами.

// 9283
//Soon they were hovering above and slightly oblique of the huge three-sided
//metal building, as it loomed far below. The triangle of steel was hollow, not
//solid, it was a building of three thick solid walls and no center. The Aurors
//on guard roomed in the top level and southern side of the building, Professor
//Quirrell had said, protected by their Patronus Charms. The legal entrance into
//Azkaban was on the roof of the southwest corner of the building. Which the two
//of them wouldn’t use, of course. Instead they would use a corridor that ran
//directly beneath the northern corner of the building. Professor Quirrell would
//go down first, and puncture a hole in the roof and its wards right at the
//northern tip, leaving behind an illusion to cover the gap.
Невдовзі вони зависли над і трохи збоку від величезної трикутної металевої
будівлі, що загрозливо маячила далеко внизу. Сталевий трикутник був порожнім
всередині, а не суцільним, це була будівля з трьох товстих стін і без центральної частини.
Аврори-охоронці розташовувалися у верхньому рівні з південної сторони, як
сказав був професор Квірел, і були під захистом своїх патронусів. Законний вхід
до Азкабану був у південно-західному куті даху. Ним вони, звісно, не
скористаються. Натомість вони використають коридор, що йшов прямо під північним
кутом будинку. Професор Квірел спуститься першим, проб'є діру в стелі та
захисних чарах поряд з північним краєм кута, і створить ілюзію над дірою.

// 9284
//The prisoners were kept in the side of the building, in levels corresponding to
//their crimes. And at the bottom, in the uttermost center and depth of Azkaban,
//lay a nest of more than a hundred Dementors. Loads of dirt were occasionally
//dropped in to keep up the level, as the matter directly exposed to the
//Dementors broke down into mud and nothingness…
В'язнів тримали у ребрах будівлі, на поверхах відповідно до злочинів.
Внизу, у центрі та глибині Азкабану розташовувалося гніздо більш ніж сотні
дементорів. Періодично туди кидали купи землі, щоб підтримувати рівень, адже
матерія безпосередньо поряд з дементорами розкладалася на порох і
перетворювалася на ніщо...

// 9285
//“Wait one minute,” said the rough voice, “follow me at speed, and pass through
//with care.”
-- Зачекай одну хвилину, -- сказав грубий голос, -- швидко рушай за мною, і
обережно проходь.

// 9286
//“Got it,” Harry said lowly.
-- Є, -- тихо відповів Гаррі.

// 9287
//The spark winked out, and Harry began to count, __one one thousand, two
//one thousand, three one thousand…__
// hedrok @thousand
Цятка зникла, і Гаррі почав лічити: __раз раз тисяча, два раз тисяча, три раз
тисяча...__

// 9288
//__…sixty one thousand,__ and Harry dived, the wind shrieking around him as
//he dived, down toward the vast metal structure, down toward where he could feel
//the shadows of Death waiting for him, draining light and radiating emptiness,
//as the metal structure grew larger and larger. Plain and featureless loomed the
//vast grey shape, but for a single raised boxlike structure in the southwest
//corner. The north corner was simply blank, Professor Quirrell’s hole
//undetectable.
__...шістдесят раз тисяча__, і Гаррі пірнув, вітер під час спуску верещав навколо,
а він летів униз до грандіозної металевої конструкції, туди, де він міг відчувати,
як тіні смерті чекали на нього, висмоктували світло та випромінювали порожнечу,
а металева конструкція ставала дедалі більшою. Пласкою й невиразною була величезна
зловісна сіра форма, крім єдиного підвищення-коробки у південно-західному кутку.
Північний кут був рівнесенький, отвору, що його створив професор Квірел, зовсім
не було видно.

// 9289
//Harry pulled up sharply as he approached the north corner, giving himself more
//safety margin than he would have bothered with in flying classes, but not too
//much. As soon as he’d come to a halt, he began to slowly lower his broomstick
//again, toward what looked like the solid roof of the tip of the north corner.
Гаррі різко вирівняв мітлу, коли наблизився до північного кута. Він взяв
більший запас, ніж вважав би достатньо безпечним на уроках польотів, проте
ненабагато більший. Щойно він зупинився, він почав знову спускатися, цього
разу повільно, до кінчика північного кута, що скидався на твердий дах.

// 9290
//Descending through the illusory roof while invisible was a strange experience,
//and then Harry found himself in a metal corridor lighted with a dim orange
//light - which, Harry realized after a startled glance, was coming from an
//old-fashioned mantled gas lamp…
// hedrok: gas mantle -> газожарова сітка
// http://dspace.nbuv.gov.ua/bitstream/handle/123456789/113891/16-Kovtun.pdf
Спускатися крізь ілюзорну стелю, доки ти невидимий, було доволі дивним відчуттям,
а потім Гаррі опинився в металевому коридорі, що його освітлювало тьмяне
оранжеве світло. Як збагнув Гаррі після здивованого погляду, освітлення
забезпечували старомодні гасові лампи з газожаровими сітками...

// 9291
//…for magic would fail, be drained away after a time, in the presence of
//Dementors.
...бо магія згасне, її з часом висмокче присутність дементорів.

// 9292
//Harry dismounted his broom.
Гаррі зліз з мітли.

// 9293
//The pull of the emptiness was stronger now, as it parted and flowed around
//Harry without touching him. They were distant but they were many, the wounds in
//the world; Harry could have pointed to them with his eyes closed.
Тепер подих порожнечі відчувався сильніше, ніби він розтікався навколо Гаррі,
проте не торкався його. Вони були далеко, проте їх було багато -- рани цього
світу. Гаррі міг би вказати на них із заплющеними очима.

// 9294
//“__Casst your Patronuss,__” hissed a snake from the floor, looking more
//discolored than green in the dim orange light.
-- __Виклич ссвого патронусса,__ -- прошипів змій з підлоги. Він видавався швидше
безкольоровим, ніж зеленим, у цьому тьмяному оранжевому освітленні.

// 9295
//The note of stress came through even in Parseltongue. Harry was surprised;
//Professor Quirrell had said that Animagi in their Animagus forms were much less
//vulnerable to Dementors. (For the same reason the Patronuses were animals,
//Harry assumed.) If Professor Quirrell was in this much trouble in his snake
//form, what had been happening to him while he was in the human form that let
//him use his magic…?
Гаррі відчув утому в голосі -- навіть у парселмові. Гаррі цьому здивувався --
професор Квірел казав був, що анімаги у формі тварин були значно менш уразливими
для дементорів. (Гаррі припустив, що з тієї саме причини, з якої патронуси були
тваринами.) Якщо професорові Квірелу було так кепсько у формі змія, то що ж з
ним коїлося, коли він був у формі людини, що давало змогу використовувати магію?..

// 9296
//Harry’s wand was already rising in his hand.
Гаррі вже здійняв руку з паличкою.

// 9297
//This would be the beginning.
Це буде початком.

// 9298
//Even if it was only one person, just one person that he could save from the
//darkness, even if he wasn’t powerful enough yet to teleport __all__ of
//Azkaban’s prisoners to safety and burn the triangular hell down to bedrock…
Навіть якщо це буде одна людина, якщо він міг врятувати від пітьми лише одну
людину, і він ще не був достатньо могутнім, щоб телепортувати __всіх__ в'язнів
Азкабану до безпеки й спопелити трикутне пекло до ґрунту...

// 9299
//Even so it was a start, it was a beginning, it was a down payment on everything
//that Harry meant to accomplish with his life. No more waiting, no more hoping,
//no more mere promising, it would all begin here. Here and __now.__
Все одно це почин, це початок, це був перший завдаток за все, чого Гаррі збирався
досягти протягом життя. Годі чекати, годі лише сподіватися, годі обіцянок, усе
починається тут. Тут і __зараз__.

// 9300
//Harry’s wand slashed down to point at where the Dementors waited far below.
Гаррі змахнув паличкою у тому напрямку, де далеко внизу чекали дементори.

// 9301
//“__Expecto Patronum!__”
-- __Експекто Патронум!__

// 9302
//The glowing humanoid figure blazed up into existence. It wasn’t the sun-bright
//thing that it had been before… probably because Harry hadn’t quite been able to
//stop himself from thinking about all the __other__ prisoners in their
//cells, the ones that he __wasn’t__ here to save.
І засяяла фігура гуманоїда. Він не був яскравим мов сонце, як раніше... напевно
через те, що Гаррі все ж таки не вдалося припинити думати про __інших__ в'язнів
та їхні камери -- про тих, кого він __не__ збирався зараз рятувати.

// 9303
//It might be for the best, though. Harry would need to keep this Patronus going
//for a while, and it might be better if it wasn’t quite so bright.
Втім, це напевно на краще. Гаррі треба буде підтримувати патронус довгий час,
тому напевно ліпше не робити його надто яскравим.

// 9304
//The Patronus dimmed a little further, at that thought; and then further again,
//as Harry tried to put a little less of his strength into it, until finally the
//brilliant humanoid figure was glowing only slightly brighter than the brightest
//animal Patronus, and Harry felt that he could dim it no further without risking
//losing it entirely.
Від цієї думки патронус ще трохи згаснув; а потім ще, бо Гаррі старався
вкладати в нього трохи менше своєї сили, доки нарешті блискучий гуманоїд сяяв
лише трохи яскравіше за найяскравішого патронуса-тварину, і Гаррі відчув, що
спроби притлумити його далі можуть призвести до того, що той просто зникне.

// 9305
//And then, “__It iss sstable,__” Harry hissed, and began feeding his
//broomstick into his pouch. His wand stayed in his hand, and a slight,
//sustainable flow from him replaced the slight losses from his Patronus.
-- Він сстабільний, -- прошипів Гаррі та почав згодовувати мітлу капшучку.
Він не випускав палички з рук, і слабкий постійний потік від нього
компенсував невеличкі втрати від патронуса.

// 9306
//The snake blurred into the form of a lanky, sallow man, holding Professor
//Quirrell’s wand in one hand and a broomstick in the other. The lanky man
//staggered as he came back into existence, and went to lean against the wall for
//a moment.
Змій перетворився на довговʼязого жовтуватого чоловіка, що тримав в одній руці
паличку професора Квірела та мітлу в іншій. Жовтуватий чоловік похитнувся, коли
з'явився, і ненадовго сперся на стіну.

// 9307
//“Well done, if perhaps a trifle slow,” murmured the gravelly voice. Professor
//Quirrell’s dryness was in it, even though it didn’t fit the voice, nor did the
//grave look on the thickly bearded face. “I cannot feel them at all, now.”
-- Чудово виконано, хіба що крапельку повільно, -- пробурмотів грубий голос.
Звична для професора Квірела сухість чулася й у цьому голосі, хоч і не пасувала
ані голосу, ані похмурому виразу цього обличчя з густою бородою. -- Тепер я їх
взагалі не відчуваю.

// 9308
//A moment later, the broomstick went into the man’s robes and vanished. Then the
//man’s wand rose and tapped on his head, and with a sound like a cracking
//eggshell he disappeared once more.
За мить мітла щезла під мантією чоловіка. Тоді він підвів паличку та
доторкнувся своєї голови, і зі звуком, ніби розбилося яйце, знову зникнув.

// 9309
//Within the air blossomed a faint green spark, and Harry, still enshrouded in
//the Cloak of Invisibility, followed after.
У повітрі розквітла слабка зелена цятка, і Гаррі, досі окутаний Плащем
невидимості, пішов слідом.

// 9310
//If you had been watching from outside, you would have seen nothing but a small
//green spark drifting through the air, and a brilliantly silver humanoid walking
//after it.
Якби хтось дивився на цю сцену, то зміг би побачити лише як зелена цятка пливе
повітрям, а яскравий срібний гуманоїд йде за нею.

***

// 9311
//They went down, and down, and down, passing gas lamp after gas lamp, and the
//occasional huge metal door, descending into Azkaban within what seemed like
//utter silence. Professor Quirrell had set up some type of barrier by which
//__he__ could hear what went on nearby, but no sounds could pass outward,
//and no sounds could reach Harry.
Вони йшли вниз, вниз, вниз, проминали гасову лампу за лампою, а
подеколи величезні металеві двері. Вони спускалися Азкабаном у цілковитій тиші.
Професор Квірел створив був якийсь бар'єр, крізь який __він сам__ міг чути, що
коїться довкола, але жоден звук не виходив назовні й жоден звук не доходив до
Гаррі.

// 9312
//Harry hadn’t quite been able to stop his mind from wondering __why__ the
//silence, or stop his mind from giving the answer. The answer he’d already known
//on some wordless level of anticipation that had prompted him to futilely try
//not to think about it.
Гаррі не вдалося зупинити свій розум від питання __навіщо__ тиша, а також від
відповіді на це питання. Він уже знав відповідь на якомусь безсловесному рівні,
і саме очікування цієї відповіді спричинило безплідні спроби не думати про це.

// 9313
//Somewhere behind those huge metal doors, people were screaming.
Десь за цими величезними металевими дверима кричали люди.

// 9314
//The silver humanoid figure wavered, brightening and dimming, every time Harry
//thought about it.
Срібний гуманоїд коливався -- яскравішав та тьмянішав -- щоразу, як Гаррі про
це думав.

// 9315
//Harry had been told to cast a Bubble-Head Charm on himself. To prevent himself
//from smelling anything.
Гаррі було сказано застосувати на собі бульбашкоголові чари. Щоб він не відчував
жодних запахів.

// 9316
//All the enthusiasm and heroism had worn off already, as Harry had known it
//would, it hadn’t taken long even by his standards, the process had completed
//itself the very first time they passed one of those metal doors. Every metal
//door was locked with a huge lock, a lock of simple unmagical metal that
//wouldn’t have stopped a first-year Hogwarts student - if you still had a wand,
//if you still had your magic, which the prisoners didn’t. Those metal doors were
//not the doors of individual cells, Professor Quirrell had said, each one opened
//into a corridor in which there would be a group of cells. Somehow that helped a
//little, not thinking that each door corresponded directly to a prisoner who was
//waiting right behind it. Instead there might be __more__ than one
//prisoner, which diminished the emotional impact; just like the study showing
//that people contributed more when they were told that a given amount of money
//was required to save one child’s life, than when told the same total amount was
//needed to save eight children…
Весь ентузіазм та героїзм уже зникли, як Гаррі й очікував, хоча він гадав, що
це станеться пізніше. А сталося це перед першими ж металевими дверима, повз які
вони пройшли. Кожні металеві двері були замкнені величезним замко{stress}м,
звичайним немагічним металевим замко{stress}м, що не зупинив би й першокласника
Гоґвортсу -- якби в того була його чарівна паличка й змога використовувати
магію, а в'язням цього бракувало. Як роз'яснив професор Квірел, ці металеві
двері вели не до окремих камер, а до коридору з декількома камерами. Це якимось
чином трохи допомагало -- знати, що не кожні двері вели до вʼязня,
що чекав за ними. Натомість за ними могло бути __більше__одного вʼязня, що зменшувало
емоційний вплив. Так само, як одне дослідження показало, що люди жертвували
більше грошей на порятунок однієї дитини, ніж на порятунок восьми дітей, хоча в
обох випадках просили однакову суму...

// 9317
//Harry was finding it increasingly hard not to think about it, and every time he
//did, the light of his Patronus fluctuated.
Гаррі було дедалі важче не думати про щось інше, і щоразу, як у нього не виходило,
світло патронуса колихалося.

// 9318
//They came to the place where the passageway turned left, at the corner of the
//triangular building. Once again there were descending metal steps, another
//flight of stairs; once again they went down.
Вони підійшли до місця, де прохід повертав ліворуч, -- біля кута трикутної
будівлі. І знову вони йшли металевими сходами, черговим маршем, знову
вони спускалися вниз.

// 9319
//Mere murderers were not put into the lowest of cells. There was always a lower
//place you could go, an even worse punishment to fear. No matter how low you had
//already sunk, the government of magical Britain had some threat remaining
//against you if you did even worse.
Усього лише вбивць не саджали в найнижчі камери. Завжди було, куди спуститися,
завжди залишалося ще жахливіше покарання, якого варто боятися. Хай як низько ти
пав, уряд чаклунської Британії завжди мав щось гірше, чим можна тобі
погрожувати.

// 9320
//But Bellatrix Black had been the Death Eater who inspired more fear than anyone
//save Lord Voldemort himself, a beautiful and deadly sorceress absolutely loyal
//to her master; she had been, if such a thing were possible, more sadistic and
//evil even than You-Know-Who, as though she were trying to outdo her master…
Але Белатриса Блек була смертежеркою, що вселяла більше страху за всіх, крім
самого Лорда Волдеморта. Вродлива й смертоносна чародійка, непохитно вірна своєму
господарю. Вона була, якщо таке взагалі можливо, навіть більш садистською та
злою, ніж Відомо-Хто, ніби намагалася перевершити свого господаря...

// 9321
//…that was what the world knew of her, what the world believed of her.
...це про неї знали всі, це всі вважали правдою про неї.

// 9322
//But before then, Professor Quirrell had told Harry, before the debut of the
//Dark Lord’s most terrible servant, there had been a girl in Slytherin who had
//been quiet, keeping mostly to herself, harming no one. Afterward there had been
//made-up stories told about her, memories changing in retrospect (Harry knew
//well the research on that). But at the time, while she still attended school,
//the most talented witch in Hogwarts had been known as a gentle girl (Professor
//Quirrell had said). Her few friends had been surprised when she’d joined the
//Death Eaters, and more surprised that she’d been hiding so much darkness behind
//that sad, wistful smile.
Але перед тим, як сказав професор Квірел, перед дебютом найжахливішої
прислужниці Темного Лорда, була собі в Слизерині дівчинка, була тихою,
переважно проводила час наодинці, нікому не шкодила. Уже після з'явилася
вигадані історії про неї, змінені заднім числом спогади (Гаррі добре знав
дослідження на цю тему). Проте тоді, доки вона відвідувала школу,
найталановитішу відьму Гоґвортсу всі вважали чемною дівчинкою (як сказав був
професор Квірел). Її нечисленні друзі вкрай здивувалися, що вона приєдналася до
смертежерів, і ще більш здивувалися, що вона приховувала так багато пітьми за
тією сумною, мрійливою усмішкою.

// 9323
//That was who Bellatrix had once been, the most promising witch of her own
//generation, before the Dark Lord stole her and broke her, shattered her and
//reshaped her, binding her to him on a deeper level and with darker arts than
//any Imperius.
Такою колись була Белатриса -- найперспективнішою відьмою свого покоління --
перед тим, як Темний Лорд викрав та зламав її, розбив на друзки та зібрав
знову, прив'язав до себе на глибшому рівні темнішими за "`Імперіус`" методами.

// 9324
//Ten years Bellatrix had served the Dark Lord, killing who he bade her kill,
//torturing who he bade her torture.
Десять років Белатриса служила Темному Лордові, убивала тих, кого він казав
убити, катувала тих, кого він казав катувати.

// 9325
//And then the Dark Lord had finally been defeated.
А потім нарешті Темного Лорда було переможено.

// 9326
//And Bellatrix’s nightmare had continued.
Та жахіття для Белатриси не припинилося.

// 9327
//Somewhere inside Bellatrix there might be something that was still screaming,
//that had been screaming the whole time, something a psychiatric Healer could
//bring back; or there might not be, Professor Quirrell had no way of knowing.
//But either way, they could…
Десь всередині Белатриси досі міг бути хтось, хто кричав, кричав весь цей час,
хтось, кого психіатричний цілитель зможе повернути. А може й ні -- професор
Квірел не міг знати напевно. Але в будь-якому разі вони могли...

// 9328
//…they could at least get her out of Azkaban…
...принаймні вони могли витягти її з Азкабану...

// 9329
//Bellatrix Black had been put into the lowest level of Azkaban.
Белатрису Блек посадили в камеру найнижчого рівня Азкабану.

// 9330
//Harry was having trouble not imagining what he would see when they got to her
//cell. Bellatrix must have had almost no fear of death, in the beginning, if she
//was still alive at all.
Гаррі було складно не уявляти, що він побачить, коли дістанеться її камери.
Белатриса мала спочатку майже не боятися смерті, якщо вона досі жива.

// 9331
//They descended another flight of stairs, coming that much closer to Death and
//Bellatrix, the clacking of their invisible shoes the only sound that Harry
//could hear. Dim orange light coming from the gas lights, the faint green spark
//drifting through the air, the shining figure following with its silver light
//fluctuating from time to time.
Вони спустилися ще одним маршем сходів, ще трохи наблизилися до Смерті та Белатриси,
Гаррі міг чути лише стукіт їхнього невидимого взуття. З гасових ламп лилося тьмяне
оранжеве світло, слабка зелена цятка повільно летіла, блискуча фігура йшла за нею,
її срібне світло подеколи змінювало інтенсивність.

***

// 9332
//After descending many times, they came in time to a corridor that did not end
//in stairs, and a final metal door, and the green spark halted before it.
Після багатьох спусків вони опинилися в коридорі, що завершувався не сходами, а
останніми металевими дверима, і зелена цятка зависла навпроти них.

// 9333
//Harry’s heart had calmed a little, as they descended far into the depths of
//Azkaban without anything happening. But now it was hammering his chest once
//more. They were at the bottom, and the shadows of Death were very close at
//hand.
Серце Гаррі трохи заспокоїлося, доки вони спускалися в глибини Азкабану без
жодних подій. Але тепер воно знову калатало. Вони були на дні, до тіней смерті
було рукою подати.

// 9334
//A soft metal click came from the lock, as Professor Quirrell opened the way.
Замок тихо клацнув, коли професор Квірел його відімкнув.

// 9335
//Harry took a deep breath and remembered everything that Professor Quirrell had
//told him. The hard part wouldn’t just be getting the pretended personality
//right enough to fool Bellatrix Black herself, the hard part would be keeping
//his Patronus going at the same time…
Гаррі глибоко вдихнув та пригадав усе, що сказав йому професор Квірел. Складно
буде не достатньо точно зіграти потрібну роль, щоб обдурити Белатрису Блек,
-- складно буде водночас утримувати патронус...

// 9336
//The green spark winked out, and a moment later a meter-high snake shimmered
//into existence, no longer invisible.
Зелена цятка зникла, і за мить з'явився метровий змій, більше не невидимий.

// 9337
//The metal door moved with a slow creaking sound as Harry pushed on it with his
//invisible hand, opened it just a crack, and peered through.
Гаррі штовхнув металеві двері невидимою рукою, і вони повільно й зі скреготом
трохи розчинилися -- лише трохи, і він зазирнув усередину.

// 9338
//He saw a straight corridor that terminated in solid stone. There was no light
//there but what crept in from Harry’s Patronus. That was bright enough for him
//to see the outer bars of the eight cells set into the corridor, but he couldn’t
//see the insides; more importantly, though, he didn’t see anyone in the corridor
//itself.
Він побачив коридор, що завершувався кам'яною стіною. Всередині не було жодного
освітлення, крім того, що надходило від патронуса Гаррі. Цього було достатньо, щоб
він побачив у коридорі зовнішні ґрати восьми камер, проте він не міг побачити,
що всередині. Важливішим, втім, було те, що він не міг побачити, чи є хтось у самому
коридорі.

// 9339
//“__I ssee nothing,__” hissed Harry.
-- __Нічого не бачу__, -- прошипів Гаррі.

// 9340
//The snake darted on ahead, swiftly twisting across the floor.
Змій кинувся вперед, хутко поплазував підлогою.

// 9341
//A moment later -
За мить...

// 9342
//“__Sshe iss alone,__” hissed the snake.
-- __Вона ссама__, -- прошипів змій.

// 9343
//__Stay,__ Harry thought to his Patronus, which took up a position just to
//one side of the door, as though guarding it; and then Harry pushed the door
//open further, and followed within.
__Залишся,__ звернув Гаррі думку до патронуса, і той став навпроти дверей, ніби
охороняв їх. Гаррі штовхнув двері ще раз, щоб ширше їх прочинити, і зайшов
усередину.

// 9344
//The first cell Harry looked at contained a dessicated corpse, skin gone grey
//and mottled, flesh worn through in places to expose the bone beneath, no eyes -
У першій камері, яку побачив Гаррі, був засохлий труп, шкіра була сірою та
поцяткованою, у деяких місцях було видно кістки, очей не було...

// 9345
//Harry shut his eyes. He could still do that, he was still invisible, he wasn’t
//betraying anything by shutting his eyes.
Гаррі заплющив очі. Він досі міг це зробити, бо був невидимим, він нічому не
шкодив, заплющивши очі.

// 9346
//He’d known it already, he’d read it on page six of his Transfiguration book,
//that you stayed in Azkaban until your prison term was done. If you died before
//it was up they kept you there until they released your corpse. If your term was
//for life, they just left the body in the cell until the cell was needed, at
//which point they threw your body into the Dementors’ pit. But it was still a
//shock to see, that corpse had been a __person__ who’d just been
//__left__ there -
Він про це вже знав, він читав був про це на шостій сторінці підручника
трансфігурації: у Азкабані залишалися доки не спливав строк ув'язнення.
Якщо перед тим ти помирав, то тебе тримали мерцем. Якщо строк був довічний,
то твоє тіло просто лишали в камері, доки камера не стане потрібною, а тоді
просто кидали тіло до ями дементорів. Але побачити це все одно було шоком,
цей труп колись був __особистістю__, когось просто __залишили__ там...

// 9347
//The light in the room wavered.
Світло в кімнаті заколихалося.

// 9348
//__Steady,__ thought Harry in his core. It wouldn’t be good for Professor
//Quirrell if that Patronus went out from his thinking sad thoughts. This near to
//the Dementors the Defense Professor might just fall dead where he stood.
//__Steady, Harry James Potter-Evans-Verres, steady!__
__Спокійно__, звернув Гаррі думку до своєї серцевини. Професорові Квірелу не піде
на користь, якщо патронус зникне через його сумні думки. Так близько до дементорів
професор Квірел може просто впасти й померти. __Спокійно, Гаррі Джеймсе
Поттер-Еванс-Веррес, спокійно!__

// 9349
//With that thought, Harry opened his eyes again, there wasn’t time to waste.
З цією думкою Гаррі знову розплющив очі -- не можна було марнувати час.

// 9350
//The second cell he looked at contained only a skeleton.
У другій камері був лише скелет.

// 9351
//And behind the bars of the third cell he saw Bellatrix Black.
За ґратами третьої камери він побачив Белатрису Блек.

// 9352
//Something precious and irreplaceable inside Harry withered like dry grass.
Щось цінне й незамінне всередині Гаррі вигоріло мов трава на сонці.

// 9353
//You could tell the woman wasn’t a skeleton, that her head wasn’t a skull,
//because the texture of skin was still different from the texture of bone, no
//matter how white and pale she’d become, waiting in the dark alone. Either they
//weren’t feeding her much, or what she ate, the shadows of Death drained from
//her; for her eyes seemed shrunken below their lids, her lips looked too
//shriveled to close over her teeth. The color seemed leached out of the black
//clothing she had worn into prison, like the Dementors had drained that too.
//They’d been meant to be daring, those clothes, and now they lay loosely over a
//skeleton, exposing shriveled skin.
Зрозуміти, що жінка не скелет, а її голова -- не череп, можна було лише за
текстурою шкіри, що все одно відрізнялася від кістки, хай якою білою та блідою
Белатриса стала у темряві, у своєму самотньому очікуванні. Чи то її погано
годували, чи то все, що вона з'їдала, висмоктували тіні смерті: її очі ніби
запали під повіками, губи здавалися надто зсохлими, щоб стулитися над зубами.
Колір вивітрився з колись чорної матерії, в якій вона потрапила до тюрми, ніби
дементори висмоктали і його. Цей одяг певно колись був відвертим, але тепер
висів на скелеті й показував лише зморшкувату шкіру.

// 9354
//__I’m here to save her, I’m here to save her, I’m here to save her,__
//Harry thought to himself, desperately, over and over with an effort like
//Occlumency, willing his Patronus not to go out, to stay and __protect
//Bellatrix from the Dementors__ -
__Я її рятую, я її рятую, я її рятую,__ несамовито повторював Гаррі подумки,
знов і знов, мов застосовував блокологію, бажав, щоб патронус не зникнув, щоб
залишився й __захистив Белатрису від дементорів__...

// 9355
//In his heart, in his core, Harry held to all his pity and his compassion, his
//will to save her from the darkness; the silver radiance coming in through the
//open door brightened, even as he thought it.
У серці, у внутрішній серцевині, Гаррі зберіг увесь жаль та співчуття, бажання
врятувати її від пітьми. Срібне проміння, що лилося крізь прочинені двері,
пояскравішало від цієї думки.

// 9356
//And in another part of him, like he was just letting another part of his mind
//carry out a habit without paying much attention to it…
А інша його частина, ніби він просто дозволив іншій частині розуму робити щось
звичне, і не треба було навіть приділяти цьому уваги...

// 9357
//A cold expression came over Harry’s face, invisibly beneath the hood.
Холодний вираз запанував обличчям Гаррі, невидимим під каптуром.

// 9358
//“Hello, my dear Bella,” said a chill whisper. “Did you miss me?”
-- Привіт, моя люба Белло, -- промовив крижаний шепіт. -- Сумувала за мною?
