// 16608
//== Roles, Pt 4
== Розділ 93. Ролі, ч.4

// 16609
//Harry had walked into the Great Hall, looked around only once, grabbed enough
//calories to sustain himself, walked out, put on his Cloak again and found a
//small random corner in which to eat. Seeing the students at their tables -
Гаррі увійшов до Великої зали, один раз роззирнувся довкола, ухопив достатньо для
підтримки життєдіяльності калорій, вийшов, надягнув знову свій Плащ
та знайшов якийсь закуток, де можна поїсти. Бачити інших учнів за столом...

// 16610
//__Feeling revulsion when you look at other humans is not a good sign,__
//Hufflepuff said. __It’s not reasonable to blame them for having not had
//your opportunities to learn what you’ve learned. Inaction in emergencies has
//nothing to do with people being selfish. Normalcy bias, like that plane crash
//in Tener-something where a few people ran out and escaped but most people just
//sat in their seats not moving while their plane was literally on fire. Look at
//how long __you__ took to really start moving.__
// kabakchey:
//   - Normalcy bias:
//          https://uk.wikipedia.org/wiki/Упередження_нормального_перебігу
//   - Tenerife airport disaster:
//          https://uk.wikipedia.org/wiki/Зіткнення_в_аеропорту_Лос-Родеос
__Відчуття відрази, коли дивишся на інших людей, -- погана ознака__,
прокоментував гафелпафець. __Не варто їх звинувачувати в тому, що в них не було
всіх можливостей, які ти мав, щоб вивчити все, що ти знаєш. Бездіяльність у
стресових ситуаціях не має нічого спільного з егоїзмом. Це ж упередження
нормальності, як тоді, коли зіткнулися літаки на острові Тенер-щось-там, дехто з
пасажирів вибіг та врятувався, але більшість просто заклякли в кріслах
поки їхній літак буквально горів. Подивися, скільки __тобі__ знадобилося часу,
щоб справді почати діяти.__

// 16611
//__It serves no useful purpose to hate__, said Gryffindor. __It’s
//just going to damage your altruism.__
__У ненависті немає корисного призначення__, сказав ґрифіндорець. __Це
пошкодить твій альтруїзм.__

// 16612
//__Try to figure out a training method you could use to prevent this from
//happening next time,__ said Ravenclaw.
__Спробуй винайти спосіб тренування, який можна використати, щоб запобігти
цьому наступного разу__, сказав рейвенкловець.

// 16613
//__I’ll go ahead and register the experimental prediction,__ said
//Slytherin, __that we’ll always observe exactly what would be predicted on
//the hypothesis that people cannot be saved, cannot be taught, and will never
//help us with anything important. Also, we need some way of keeping track of all
//the times I’m right.__
__А я зухвало зроблю експериментальне передбачення__, сказав слизеринець,
__запамʼятайте мої слова: ми завжди спостерігатимемо саме те, на що вказує
гіпотеза, згідно з якою людей не можна врятувати, не можна навчити, і вони
ніколи не зможуть допомогти нам з чимось справді важливим. Також нам потрібен
якийсь спосіб підрахунку того, як часто я маю рацію.__

// 16614
//Harry ignored the voices in his head and just ate slices of toast as fast as he
//could. It wasn’t proper nutrition as a general policy, but one-time exceptions
//wouldn’t hurt so long as he made them up the next day.
Гаррі проігнорував голоси у своїй голові і просто зʼїв тости якомога
швидше. Це був поганий спосіб харчування для щоденної практики, та
поодинокі винятки не зашкодять, якщо він надолужуватиме втрачене
наступного дня.

// 16615
//In mid-bite, the blazing silver silhouette of a phoenix flew in from nowhere
//and said, in the voice of a tired old man, “Please remove your Cloak, Harry, I
//have a letter to deliver to you.”
Він саме робив черговий укус, як яскрава срібна фігура фенікса випурхнула
нізвідки та сказала голосом старого втомленого чоловіка:

-- Скинь свого Плаща, Гаррі. Я маю доставити тобі листа.

// 16616
//Harry coughed for a bit, swallowed some toast which had gone down the wrong
//way, stood up, took off the Cloak of Invisibility, said aloud “Tell Dumbledore
//I said fine,” and then sat down and continued to eat his toast.
Гаррі прокашлявся, ковтнув шмат тосту, що пішов не туди, підвівся, зняв Плащ
невидимості, голосно сказав:

-- Передай Дамблдорові, що я сказав "`добре`", -- а потім сів та продовжив їсти
свій тост.

// 16617
//The toast had all gone by the time Albus Dumbledore walked up to Harry’s nook,
//carrying folded sheets of paper in his hand; real paper, with lines, not
//wizard’s parchment.
Тост майже скінчився, коли Албус Дамблдор підійшов до Гарріного закутка,
принісши згорнуті аркуші паперу в руці. Справжнього паперу, у лінію, а не
чаклунського пергаменту.

// 16618
//“Is that -” Harry said.
-- Це... -- почав Гаррі.

// 16619
//“From your father, and from your mother,” said the old wizard. Wordlessly,
//Dumbledore handed over the folded sheets, and wordlessly Harry accepted them.
//The old wizard hesitated, then said quietly, “The Defense Professor has told me
//to restrain my counsel, and I thought the same thing myself when given time to
//think. I have always taken too long to learn the virtues of silence. But if I
//am mistaken, you need only say the word -”
-- Від твого батька і від твоєї матері, -- відповів старий чарівник. Дамблдор
безмовно простяг складені аркуші, і Гаррі безмовно їх прийняв. Старий чаклун
трішки завагався, а потім тихо спитав: -- Професор захисту сказав мені
утриматися від порад. Я й сам так вирішив, коли обміркував це спокійно.
Надто довго я не розумів чеснот мовчання.
Але, якщо я помиляюся, то тільки скажи...

// 16620
//“You’re not mistaken,” Harry said. He looked down at the folded, lined papers,
//feeling the sickness in his gut that was how his body indicated a strong
//pessimistic prediction. His parents wouldn’t actually disown him, and there
//wasn’t much they could __do__ to him (some part of himself was still
//afraid in a very visceral way of television privileges being taken away, no
//matter how little sense that made now). But he had stepped outside the role
//that parents would expect of children who, in their internal beliefs, were
//lower on the pecking order. It would be stupid to expect anything except
//complete indignant fury, all-out righteous rage, when you acted like that to
//someone who thought they were dominant over you.
-- Ви не помиляєтеся, -- мовив Гаррі. Він поглянув униз на складені аркуші в
лінію, йому стало млосно -- тіло так повідомляло про
сильно песимістичний прогноз. Не могло бути, щоб його батьки
зреклися його, та й зрештою не було нічого, що вони __могли б__
йому зробити (якась частина всередині нього досі боялася, що йому заборонять
дивитися телевізор, незважаючи на те, наскільки мало сенсу в цьому тепер було).
Але він вже вийшов з ролі, яку батьки приписують дітям, вважаючи їх нижчими в
ієрархії. Було б нерозумно очікувати чогось іншого, окрім люті та обурення,
всеосяжного, праведного гніву, коли так поводишся з тими, хто вважає
себе домінуючими.

// 16621
//“After you read it,” the Headmaster said, “I believe that you should come to
//the Great Hall at once, Harry. There is an announcement which you will wish to
//hear.”
-- Після того, як прочитаєш свого листа, -- почав директор, -- вважаю, що тобі
варто було б одразу спуститися до Великої зали, Гаррі. Ти хотів би почути те,
що там буде оголошено.

// 16622
//“I’m not interested in funerals -”
-- Мене не цікавлять похорони...

// 16623
//“No. Not that. Please, Harry, come as soon as you are done reading, and do so
//without your Cloak. Will you?”
-- Ні. Не це. Будь ласка, Гаррі, прийди, щойно дочитаєш, і без свого Плаща. Ти
прийдеш?

// 16624
//“Yes.”
-- Так.

// 16625
//The old wizard left.
Старий чаклун пішов.

// 16626
//Harry had to force himself to open up the letter. The important thing was
//keeping your vulnerable friends and relations out of harm’s way, it might be a
//cliche but so far as Harry could tell the logic was valid. Damaged
//relationships could be repaired later.
Гаррі довелося примушувати себе розгорнути листа. Дуже важливо було оберігати
вразливих друзів та родичів від лиха. Можливо це й кліше, але наскільки
Гаррі міг судити, логіка була правильною. Пошкоджені стосунки можна відновити
пізніше.

// 16627
//The first letter said, in script handwriting that required a careful focus for
//Harry to read,
Перший лист був написаний від руки і потребував від Гаррі зосередженості під
час читання:

// 16628
//__Son,__
__Сину,__

// 16629
//__No matter what you’ve read in books, keeping us out of harm’s way is
//____not____ as important as having adults who can help when you’re in
//trouble. You decided without giving us a word in edgewise that we’d abandon you
//because of your ‘dark side’. The ghost of Shakespeare knows that I’ve seen
//things in this last year that were not dreamt of in my philosophy - sometimes I
//wonder if your Mum isn’t just humoring me and the authorities took you away
//when I started thinking you were a magic-user - so I can’t deny that it’s
//____possible____ you’ve managed to develop some… I’m not quite sure
//what to call it, but ‘dark side’ seems premature if we don’t know what’s
//happening. Are you sure it’s not a burgeoning telepathic talent and you’re just
//picking up on the minds of other wizards around you? Their thoughts might seem
//evil to a child who grew up in a saner civilization. These are ungrounded
//speculations, I admit, but you shouldn’t jump to conclusions either.__
__Хай що ти прочитав у книгах, оберігати нас від лиха не є __настільки ж__
важливим, як мати дорослих, що зможуть надати допомогу, коли ти в біді. Не
сказавши нам ні слова, ти вирішив, що ми відмовимося від тебе через твою
"`темну сторону`". Привид Шекспіра свідок -- цього року я бачив речі, що
ніяк не вкладаються в моє уявлення про всесвіт (подеколи мені здається, що твоя
мама просто намагається мене втішити, а насправді тебе забрали органи опіки,
коли мені почало здаватися, що
ти вмієш чаклувати). Хоч я й не можу заперечувати __ймовірність__ того, що
в тебе виникла якась... Я досі не впевнений, як це називати, але "`темна
сторона`" звучить надто поспішно в умовах, коли ми не знаємо, що відбувається.
Чи ти впевнений, що це не паростки телепатичних умінь, -- можливо, ти просто читаєш
думки чарівників навколо себе? Їхні думки можуть здатися лихими для
дитини, що виросла в менш божевільній цивілізації. Все це -- безпідставні
спекуляції, визнаю. Але ти теж не повинен вдаватися до швидких висновків.__

// 16630
//__The two most important things I have to tell you are this. First, son,
//I have ____every____ confidence in your ability to stay on the Light
//Side of the Force so long as you choose to, and I have every confidence that
//you will choose to. If there’s some evil spirit whispering horrible suggestions
//in your ears, just ignore the suggestions. I ____do____ feel the need
//to emphasize that you should exercise special caution to ignore this evil
//spirit even if it is suggesting what seem like wonderful creative ideas and I
//hope I do not need to remind you about the Incident with the Science Project
//which would, I admit, make a deal more sense if you were struggling with
//demonic possession.__
__Ось дві найважливіші речі, що я маю тобі сказати. По-перше, сину, я __цілком
упевнений__ у твоїй здатності залишатися на Світлій стороні сили так довго, як
ти того бажатимеш, і я цілком упевнений, що лише цього ти й бажаєш. Якщо якийсь
злий дух шепоче тобі жахливі пропозиції, просто ігноруй їх. Я відчуваю
__потребу__ наголосити, що тобі потрібно напрацювати навичку ігнорувати
цього злого духа, навіть коли він пропонує щось, що здається чудовою винахідливою
ідеєю. Сподіваюся, мені не треба нагадувати про той випадок з науковим
проєктом, який, визнаю, було б значно легше пояснити, якщо ти тоді страждав
від демонічної одержимості.__

// 16631
//__The second thing I have to say is that you do not need to fear that Mum
//or I are going to abandon you because of your ‘dark side’. We may not have
//expected you to gain magical powers or develop an affinity for black magic, but
//we did expect you to become a teenager. Which, if you think about it from your
//poor father’s perspective, is already a sufficiently worrying prospect
//regarding a child who, by the age of nine, had been party to the summoning of a
//total of five fire engines. Children grow up. I won’t lie to you and say that
//you will feel as close to us at 20 as you do now. But your Mum and I will feel
//just as close to you when we are old and grey and bothering the nursing-home
//robots. Children always grow up and away from their parents, and the parents
//always follow them from behind, offering helpful advice. Children grow up, and
//their personalities change, and they do things that their parents wish they
//would not do, and they act disrespectfully toward their parents and have them
//hauled out of their magical schools, and the parents go on loving them anyway.
//It is Nature’s way. Though in the event that you have not yet hit puberty and
//your teenage years are proportionately worse than this, we reserve the right to
//reconsider this sentiment.__
__По-друге, маю повідомити, що немає потреби боятися, що мама
чи я відмовимося від тебе через твою "`темну сторону`". Ми не очікували, що ти
отримаєш магічні сили чи розвинеш потяг до чорної магії, але ми очікували, що
ти станеш підлітком. Що, якщо подивитися очима бідолашного батька, вже є
достатньою підставою для хвилювання за дитину, що у віці девʼяти років
була причетною до виклику загалом пʼяти пожежних автомобілів. Діти
дорослішають. Не брехатиму й не казатиму, що у віці двадцяти років ти
відчуватимеш ту саму близькість до нас, яку ти відчуваєш зараз. Але ми з мамою
любитимемо тебе так само, навіть коли ми будемо старими, сивими й турбуватимемо
роботів-прислужників у домі пристарілих. Діти завжди виростають та покидають
батьків, а батьки завжди слідують за дітьми, пропонуючи корисні поради. Діти
зростають, їхні характери змінюються, і вони роблять речі, яких не варто було
робити з точки зору
їхніх батьків, і вони зневажливо ставляться до своїх батьків, відсилають їх геть
з магічних шкіл, але батьки все одно люблять їх і далі. Це є цілком
природно. Хоча, якщо ти досі не досяг статевого дозрівання, а твої
підліткові роки будуть пропорційно гірші за це, ми залишаємо за собою право
переглянути цю думку.__

// 16632
//__No matter what is happening, remember that we love you and will always
//love you no matter what. I don’t know if our love has any magical power under
//your rules, but if it does, don’t hesitate to call on it.__
__Хай там що відбувається, памʼятай -- ми тебе любимо й завжди любитимемо,
незважаючи ні на що.
Я не знаю, чи наша любов має хоч якісь магічні сили у твоєму світі,
але якщо має, то не соромся скористатися нею.__

// 16633
//__With all of this said… Harry, what you did there is not acceptable. I
//think you know that. And I also know that it is not the time to lecture you on
//it. But you must write and tell us what is happening. I can understand very
//well why you’d want us taken out of your school at once, and I know we can’t
//force you to do anything, but please, Harry, be reasonable and realize how
//terrified we must be.__
__Враховуючи все зазначене... Гаррі, зроблене тобою є неприйнятним. Гадаю,
ти знаєш це. Також я знаю, що зараз не час для читання нотацій щодо цього. Але
ти маєш написати нам і розповісти все, що відбувається. Я чудово розумію, чому
ти хотів, щоб нас забрали зі школи, і я знаю, що ми не можемо тебе
примусити до чого-небудь, але, будь ласка, Гаррі, будь розсудливим і зрозумій,
якими переляканими ми маємо бути.__

// 16634
//__I would like to tell you that you are absolutely forbidden to mess
//around with any magic that the adults around you consider the least bit unsafe,
//but for all I know, the teachers at your school are giving everyone lessons in
//advanced necromancy every Monday. Please, please exercise as much caution as
//your situation permits, whatever your situation may be. Despite your very
//hurried summary we don’t have the slightest idea what is happening and I hope
//that you will write us as much as you can. It is clear that you are, at least
//in some ways, growing up, and I will ____try____ not to act like the
//children’s-book parent who only makes things worse - though I hope you
//appreciate how hard this is - and your Mum has said a number of frightening
//things to me about how wizardry stays secret and how I might get
//____you____ into trouble by making waves. I cannot tell you to avoid
//anything unsafe, because your school is unsafe and your Headmaster will not let
//you leave. I can’t tell you that you shouldn’t take responsibility for anything
//happening around you, because for all I know there are other children in
//trouble. But remember that it is ____not____ your moral
//responsibility to protect any adults, their place is to protect you, and every
//good adult would agree with that. Please write and tell us more as soon as you
//can.__
__Хочу тобі сказати, що тобі абсолютно заборонено мати справу з будь-якою магією,
яку дорослі навколо вважають хоч трішки небезпечною. Але з того, що я знаю,
вчителі вашої школи щопонеділка дають всім уроки з розширеного курсу
некромантії. Благаю, будь ласка, будь обережним настільки, наскільки
дозволяє ситуація навколо, хай яка вона є. Попри твій дуже куций опис, ми не
маємо найменшого розуміння про те, що відбувається, і, я сподіваюся, ти
напишеш нам стільки, скільки зможеш. Зрозуміло, що, у якомусь сенсі, ти
дорослішаєш, і я __спробую__ не вдавати батька з дитячої книжки, хто тільки
шкодить (сподіваюся, що ти розумієш, наскільки це для мене складно). І твоя мама
розповіла мені низку моторошних речей про те, як магія залишається в секреті, і
до якої халепи я заведу __тебе__, якщо буду здіймати ґвалт. Я не можу
наказати тобі уникати небезпеки, бо твоя школа є небезпечною, а твій директор
не дозволить тобі відрахуватися. Я не можу сказати, що тобі не варто брати на
себе жодної відповідальності за те, що відбувається навколо тебе, адже поряд з
тобою є інші діти в біді. Але запамʼятай, що захищати дорослих __не є__ твоїм
моральним обовʼязком -- це їхній обовʼязок оберігати тебе, і кожний хороший
дорослий з цим погодиться. Будь ласка, напиши нам більше, щойно зʼявиться
нагода.__

// 16635
//__Both of us are desperate to help. If there is anything at all that we
//can do, please let us know at once. There is nothing which can happen to us
//which would be worse than learning that something had happened to you.__
__Нам обом дуже кортить допомогти. Якщо є бодай щось, що ми можемо зробити, будь
ласка, повідом одразу. Немає нічого гіршого, що могло б трапитися з нами, ніж
дізнатися, що щось трапилося з тобою.__

// 16636
//__Love,__
__Люблю тебе,__

// 16637
//______Dad.______
__Тато.__

// 16638
//____

// 16639
//The last page said only,
Остання сторінка містила лише це:

// 16640
//__You promised me that you wouldn’t let magic take you away from me. I
//didn’t raise you to be a boy who would break a promise to his Mum. You must
//come back safely, because you promised.__
__Ти пообіцяв мені, що не дозволиш магії забрати тебе у мене. Я виховувала
тебе хлопчиком, що не порушив би обіцянки, яку він дав матері. Ти повинен
повернутися неушкодженим, бо ти обіцяв.__

// 16641
//__Love,__
__Люблю тебе,__

// 16642
//______Mum.______
__Мама.__

// 16643
//____

// 16644
//Slowly, Harry lowered the letters and began to walk towards the Great Hall. His
//hands were shaking, his whole body was shaking, and it seemed to be taking a
//very great deal of effort not to cry; which he knew wordlessly that he must not
//do. He hadn’t cried through all of the day. And he wouldn’t cry. Crying was the
//same as admitting defeat. And this wasn’t over. So he wouldn’t cry.
Гаррі повільно опустив листа й покрокував у бік Великої зали. Його руки
тремтіли, усе його тіло тремтіло, і здавалося, що забагато зусиль ішло
на те, щоб не заплакати. Чого, як він вважав, не варто було робити. Він
жодного разу не заплакав сьогодні. І не заплаче. Сльози означали б
визнання поразки. Але це ще не кінець. Тому він не заплаче.

***

// 16645
//The food served in the Great Hall that evening was plain that night, toast and
//butter and jam, water and orange juice, oatmeal and other simple fare, without
//dessert. Some students had worn simple black robes without their House colors.
//Others had still worn theirs. It should have been cause for argument, but there
//was instead a quietness, the sound of people eating without talking. It took
//two sides to make a debate, and one of the sides, this night, was not much
//interested in debating.
Їжа, яку подавали у Великій залі того вечора, була проста: тости, масло та джем,
вода та апельсиновий сік, вівсянка та інша буденна їжа -- жодних десертів.
Дехто з учнів одягнув прості чорні мантії без кольорів свого гуртожитку.
Інші ж прийшли у звичайному одязі. Це мало б спричинити суперечку, але натомість
панувала тиша, окрім, хіба що, звуку того, як люди мовчки їдять. Для дискусії
потрібні дві сторони, а одна з них цього вечора була не схильна до дискусій.

// 16646
//Deputy Headmistress Minerva McGonagall sat at the Head Table and did not eat.
//She should have. Perhaps she would in a short while. But she could not force
//herself to do it now.
Заступниця директора Мінерва Макґонеґел сиділа за Високим столом і не їла.
Хоч їй би це не завадило. Можливо, вона б таки поїла по деякому часі. Але
вона не могла примусити себе зробити це зараз.

// 16647
//For a Gryffindor there was only one path. It had taken Minerva only a short
//time to remember that, when after the Defense Professor’s urgings her mind had
//stayed empty of clever plots to try. That was not a Gryffindor’s way; or
//perhaps she ought to say only that it was not __her__ way, Albus did seem
//to try his hand at plotting… and yet when she thought back on their history,
//there were no plots at the moment of crisis, no cleverness and games in the
//last resort. For Albus Dumbledore, as for her, the rule __in extremis__
//was to decide what was the right thing to do, and do it no matter the cost to
//yourself. Even if it meant breaking your bounds, or changing your role, or
//letting go of your picture of yourself. That was the last resort of Gryffindor.
// hedrok: break bounds 092:16599
//         picture of yourself 090:16289
Для ґрифіндорців є лише один шлях. Мінерва пригадала це одразу, коли після
наполегливих слів
професора захисту її розум не зміг вигадати жодної інтриги, що могла б
зарадити. Це не було шляхом ґрифіндорців, чи, скоріш, вона мала б сказати, не було
__її__ шляхом -- Албус наче пробував себе в інтригах... І втім, якщо
пригадати, він не плів інтриг у час кризи -- жодних хитрощів
та ігор як останній засіб. Для Албуса Дамблдора, як і для неї, єдине правило
__in extremis__ -- вирішити, що є правильним, та зробити це, хай чого воно тобі
коштуватиме. Навіть якщо для цього треба вийти за свої межі,
відійти від своєї ролі чи начхати на уявний образ себе. Ось останній засіб
ґрифіндорців.

// 16648
//Through a side entrance of the Great Hall she saw Harry Potter quietly slip in.
Вона побачила, як Гаррі Поттер прослизнув до Великої зали боковим входом.

// 16649
//It was time.
Час настав.

// 16650
//Professor Minerva McGonagall rose from her chair, straightened the worn point
//on her hat, walked slowly to the lectern before the Head Table.
Професорка Мінерва Макґонеґел підвелася зі стільця, поправила
капелюха та повільно підійшла до кафедри перед Високим столом.

// 16651
//The sounds in the Great Hall, already muted, fell away entirely as all students
//turned to look at her.
Вже майже відсутні звуки у Великій залі повністю зникли, коли всі учні
повернулися в її бік.

// 16652
//“By now you have all heard,” she said, her voice not quite steady. __That
//Hermione Granger is dead.__ She didn’t say those words aloud, since they had all
//heard. “Somehow, a troll was infiltrated into the castle Hogwarts without alarm
//from our ancient wards. Somehow this troll succeeded in injuring a student,
//without alarm from the wards until the point of her death. Investigations are
//underway to determine how this has occurred. The Board of Governors is meeting
//to determine how Hogwarts will respond. In due time justice shall be served.
//Meanwhile there is another matter of justice, which must be handled at once.
//George Weasley, Fred Weasley, please come forward to stand before us all.”
-- До цього часу ви всі вже маєте знати, -- почала вона, голос її не тримався
рівно. __Що Герміона Ґрейнджер загинула.__ Вона не сказала цих слів уголос, бо
всі вони вже знають це. -- Якимось чином троль проник до замку Гоґвортс, не
здіймаючи тривоги від древніх охоронних чарів. Якимось чином цей троль зміг
уразити ученицю, не здіймаючи тривоги з чарів аж до моменту її смерті.
Проводиться розслідування щодо того, яким чином це стало можливим. Рада
опікунів проводить засідання, щоб визначити, як Гоґвортс на все це відповість.
З часом справедливість буде відновлено. Тим часом є й інша справа для
справедливості, що має бути владнана негайно. Джордже Візлі, Фреде Візлі, будь
ласка, вийдіть та станьте перед усіма.
//@ hedrok: "охоронні чари" треба обміркувати. У нас ніби всюди захисні, але
//          варіант цікавий.

// 16653
//The Weasley twins exchanged glances where they sat at the Gryffindor table, and
//then stood up and walked toward her, slowly, reluctantly; and Minerva realized
//then that the Weasley twins thought that they were to be expelled.
Близнюки Візлі переглянулися на місці, де вони сиділи за ґрифіндорським столом,
а потім підвелися та покрокували в її бік, повільно, неохоче. І тоді Мінерва
зрозуміла, що близнюки Візлі подумали, що їх зараз виключать.

// 16654
//They honestly thought that she would expel them.
Вони справді подумали, що вона їх виключить.

// 16655
//That was what the picture of Professor McGonagall who lived in her head had
//wrought.
Ось до чого призвів уявний образ професорки Макґонеґел, що жив в її
голові.

// 16656
//The Weasley twins walked over to the lectern, looking up at her with faces that
//were frightened, but resolute; and she felt something in her heart break a
//little further.
Близнюки Візлі підійшли до кафедри, дивлячись на неї наляканими, але
рішучими поглядами, і вона відчула, як і далі крається її серце.

// 16657
//“I am not going to expel you,” she said, and was saddened further by the
//surprised look on their faces. “Fred Weasley, George Weasley, turn and face
//your classmates, let them see you.”
-- Я не збираюся вас виключати, -- повідомила вона, і посумнішала ще більше
від здивування на їхніх обличчях. -- Фреде Візлі, Джордже Візлі, оберніться
до своїх однокласників, нехай вони вас бачать.

// 16658
//Still looking surprised, the Weasley twins did so.
Брати Візлі, що досі видавалися здивованими, так і зробили.

// 16659
//She drew up all the steel in her heart, and said what was right.
Вона зібрала усю волю в кулак, та сказала те, що було правильним.

// 16660
//“I am ashamed,” said Minerva McGonagall, “of the events of this day. I am
//ashamed that there were only two of you. Ashamed of what I have done to
//Gryffindor. Of all the Houses, it should have been Gryffindor to help when
//Hermione Granger was in need, when Harry Potter called for the brave to aid
//him. It was true, a seventh-year could have held back a mountain troll while
//searching for Miss Granger. And you should have believed that the Head of House
//Gryffindor,” her voice broke, “would have believed in you. If you disobeyed her
//to do what was right, in events she had not foreseen. And the reason you did
//not believe this, is that I have never shown it to you. I did not believe in
//you. I did not believe in the virtues of Gryffindor itself. I tried to stamp
//out your defiance, instead of training your courage to wisdom. Whatever the
//Sorting Hat saw in me that led it to place me in Gryffindor, I have betrayed
//it. I have offered my resignation to the Headmaster as Deputy Headmistress and
//as the Head of House Gryffindor.”
-- Мені соромно, -- мовила вона, -- за всі події, що сталися сьогодні. Мені
соромно, що там було лише двоє вас. Соромно за те, що я зробила з Ґрифіндором.
З усіх гуртожитків, саме Ґрифіндор повинен бути тим, хто прийшов би на
допомогу, коли Герміона Ґрейнджер потрапила в біду, коли Гаррі Поттер кликав
сміливців підтримати його. Це правда -- семикласник зміг би стримувати гірського
троля, поки тривають пошуки міс Ґрейнджер. І вам варто було б вірити в те, що
вихователька гуртожитку Ґрифіндор, -- її голос зірвався, -- повірила б у вас.
Коли б ви порушили її наказ, щоб вчинити правильно, в час кризи, яку вона не
змогла передбачити. І причиною для вашої зневіри є те, що я ніколи вам цього не
виказувала. Я й сама не вірила в чесноти Ґрифіндору. Я намагалася придушити
ваш бунтівний дух замість того, щоб направити вашу хоробрість і перетворити її
на мудрість. Все, що Сортувальний Капелюх вгледів у мені, що змусило його
відправити мене до Ґрифіндору, -- я зрадила все це. Я подала заяву про відставку
з посади заступниці директора та виховательки гуртожитку Ґрифіндор.

***

// 16661
//There were cries of shock and dismay, and not only from the Gryffindor Table,
//as Harry’s heart froze within his chest. Harry needed to run forward, say
//something, he hadn’t meant for __this__ to -
Залунали шоковані й обурені зойки -- і не тільки з боку ґрифіндорського столу.
Серце Гаррі захололо в грудях. Йому треба вибігти вперед, сказати щось, він
зовсім не хотів, щоб __це__ стал...

***

// 16662
//Minerva took another breath, and continued. “However, the Headmaster has
//declined to accept my resignation,” she said. “So I will continue to serve, and
//try to undo what I have wrought. Somehow I must find a way to teach my students
//how to do what is right. Not what is safe, not what is easy, not what we are
//told to do. If all I can teach you is to turn in your essays on time, there
//might as well not be a House Gryffindor. This road will be more difficult for
//me, and maybe for all of us. But I know now that before I was only taking the
//easy path.”
Мінерва вдихнула і продовжила:

-- Однак директор відхилив мої заяви, -- повідомила вона. -- Тому я
служитиму далі й спробую виправити все, що я накоїла. Я повинна знайти,
у який спосіб навчити моїх учнів чинити правильно. Не так, як буде безпечніше,
не так, як буде легше, не так, як наказали. Якщо все, чого я спроможна навчити
вас, це здавати ваші роботи вчасно, то з тим самим успіхом могло б і не бути
гуртожитку Ґрифіндор. Цей шлях буде значно складнішим для мене і, можливо, для
всіх нас. Але тепер я знаю, що до цього я обирала лише легкий шлях.

// 16663
//She stepped down from the lectern, moved down to where the Weasley twins stood.
Вона зійшла з кафедри і підійшла до місця, де стояли близнюки Візлі.

// 16664
//“Fred Weasley, George Weasley,” she said. “The two of you have not always done
//what is right. The path of wisdom does not lie in flagrant and needless
//defiance of authority. And yet today you proved to be the last of our House to
//survive my mistakes. Because it was the right thing to do, you defied a threat
//of expulsion and risked your lives to face a mountain troll. For your
//astounding courage that honors your House to have you, I award each of you two
//hundred points for Gryffindor.”
-- Фреде Візлі, Джордже Візлі, -- заговорила вона, -- ви обидва не завжди чинили
правильно. Шлях мудрості лежить не в обурливій та марній непокорі авторитету. І
все ж сьогодні ви виявилися єдиними з нашого гуртожитку, кого не зіпсували мої помилки.
Бо ви вчинили правильно: не підкорилися страху бути виключеними й
ризикнули життям, виходячи проти гірського троля. За вражаючу
сміливість, що робить честь вашому роду, я нагороджую кожного з вас двома
сотнями очок для Ґрифіндору.

// 16665
//Again the look of shock on their faces, again the pain like a knife through her
//heart.
Знову шок на їхніх обличчях, знову біль ріже ножем її серце.

// 16666
//She turned to face the other students.
Вона повернулася до інших учнів.

// 16667
//“I will not award any points to Ravenclaw,” she said. “I suspect that Mr.
//Potter would not want them. If I am wrong, he may correct me and take as many
//House points as he pleases. But for whatever it is worth, Mr. Potter, I am,”
//her voice faltered, “I am sorry -”
-- Я не дам жодних очок Рейвенклову, -- подовжила вона. -- Підозрюю, що містер
Поттер не захоче їх. Якщо ж я помиляюся, він може виправити мене й взяти
стільки очок гуртожитку, скільки забажає. Але, якщо це чогось і варте,
містере Поттер, мені... -- голос підвів її. -- Мені шкода...

***

// 16668
//“__Stop!__” Harry screamed, and then, again, “Stop.” The word sticking in
//his throat. “You don’t have to, Professor.” Something inside him was twisting,
//threatening to split him open, like a giant’s hands wrenching at him to tear
//him in half. “And, and you shouldn’t forget Susan Bones, and Ron Weasley - they
//also helped, they should get House points too -”
-- __Зупиніться!__ -- закричав Гаррі, і потім знову: -- Зупиніться, -- слова
застрягали в його горлі. -- Ви не мусите, професорко, -- щось всередині нього
викручувалося, погрожуючи розірвати його зсередини, ніби руки велетня, що
роздирають його навпіл. -- І... І вам не варто забувати про Сьюзен Боунз та
Рона Візлі -- вони теж допомагали, вони теж мають отримати очки гуртожитків...

// 16669
//“Miss Bones and the young Weasley?” said Professor McGonagall. “Rubeus said
//nothing of that - what did they do?”
-- Міс Боунз та молодший Візлі? -- перепитала професорка Макґонеґел. -- Рубеус
нічого про них не говорив... Що ж вони зробили?

// 16670
//__“__Miss Bones tried to stun Mr. Hagrid when he tried to stop me, and Mr.
//Weasley shot Neville when Neville tried to stop me. They should both get
//points, and, and so should Neville,” Harry hadn’t thought to imagine it before,
//the way Neville must be feeling now, but the instant he’d thought, he knew,
//“because Neville tried to do something, even if it wasn’t the right thing,
//doing what’s right is the __second__ lesson, you can start practicing that
//after you learn to do anything at all -”
-- Міс Боунз спробувала оглушити містера Геґріда, коли той намагався зупинити
мене, а містер Візлі поцілив закляттям у Невіла, коли Невіл пішов мені
наперекір. Вони обидва мають отримати очки, і... і Невіл також, -- до цієї
миті Гаррі не уявляв, як Невіл має почуватися зараз, але в ту ж мить як він
про це подумав, він зрозумів, -- адже Невіл спробував хоч якось діяти.
Навіть якщо його дії й не були правильними. Бо діяти правильно -- це
__наступний__ урок, який треба засвоїти після того, як навчишся діяти взагалі.

// 16671
//“Ten points to Hufflepuff, Miss Bones,” Professor McGonagall said, her voice
//breaking in the middle. “Ten points to Gryffindor, Ron Weasley, your family has
//done itself exceeding proud, this day. And ten points to Hufflepuff for Neville
//Longbottom, for standing up to Mr. Potter and doing what he thought was right
//-”
-- Десять очок Гафелпафу, міс Боунз, -- сказала професорка Макґонеґел, її голос
надломився посередині. -- Десять очок Ґрифіндору, Роне Візлі. Сьогодні ваша
родина повинна надзвичайно пишатися собою. І десять очок Гафелпафу для Невіла
Лонґботома за спробу зупинити містера Поттера та зробити те, що він вважав
правильним...

// 16672
//__“You shouldn’t!__” screamed a young voice from the Hufflepuff table,
//followed by a single choking sound.
-- __Ви не повинні!__ -- вигукнув молодий голос з боку гафелпафського столу, і
пролунав гучний звук тамування подиху.

// 16673
//Harry looked there, and then quickly looked back at Professor McGonagall and
//said, as steadily as he could, “Neville’s right, actually, you can’t award
//literally zero points for the part where you get the action correct, that sends
//the wrong message too, but he was halfway there so it could be five points
//instead.”
Гаррі поглянув у той бік, але потім швидко перевів погляд назад до професорки
Макґонеґел і промовив так рівно, як тільки міг:

-- Насправді Невіл має рацію -- ви не можете нагороджувати буквально нулем очок
за те, що ти діяв правильно, бо це посилає неправильний сигнал. Натомість,
варто дати пʼять очок, враховуючи, що він був напівдорозі.

// 16674
//Professor McGonagall looked, for a moment, like she couldn’t think of what to
//say; but then her eyes went to Neville’s place at the table, and she said, “As
//you wish, Mr. Potter. What is it, Miss Bones?”
Якусь мить видавалося, що професорка Макґонеґел не могла знайти, що на це
відповісти, але потім вона спрямувала погляд у бік Невіла і виголосила:

-- Як бажаєте, містере Поттер. Що ще, міс Боунз?

// 16675
//Harry looked and saw that Susan Bones had stepped forward, wiping at her own
//eyes, and the Hufflepuff girl said, “Actually - Professor McGonagall - General
//Potter didn’t see it - but Captain Weasley and I weren’t the only ones who
//tried to get in Mr. Hagrid’s way, after he ran out. Before some of the older
//students stopped us. But we managed to slow Mr. Hagrid down a minute, so
//General Potter could get away.”
Гаррі подивився у той бік і побачив, що Сьюзен Боунз вийшла вперед, витираючи
очі. Гафелпафка промовила:

-- Насправді... Професорко Макґонеґел... Генерал Поттер цього не бачив... Але
капітан Візлі і я були не єдині, хто став на шляху містера Геґріда, коли він
втік. До того, як старші учні нас зупинили. Але ми змогли сповільнити містера
Геґріда на якусь мить, щоб генерал Поттер зміг вирватися.

// 16676
//“You’ve got to give them points too,” said Ron Weasley from the Gryffindor
//table. “Or I won’t take any.”
-- Ви мусите дати їм очки також, -- сказав Рон Візлі з ґрифіндорського стола.
-- Або я їх теж не візьму.

// 16677
//“Who else?” said Professor McGonagall, her voice a bit unsteady.
-- Хто ще? -- спитала професорка Макґонеґел, її голос не тримався рівно.

// 16678
//Seven other children stood up.
Семеро інших дітей піднялося.

// 16679
//__What was that our Slytherin side was saying about predicting nothing
//would ever work?__ said Hufflepuff.
__Що саме там наш слизеринець передбачав про те, що нічого ніколи не
спрацює?__ спитав гафелпафець.

// 16680
//Something in Harry cracked, so that he had to exert all his force to hold
//himself together.
Щось всередині Гаррі надломилося так, що йому довелося зібрати всі сили, щоб
не розклеїтися зовсім.

***

// 16681
//When all had been said, and all had been done, Minerva went to where Harry
//Potter stood. Though it was not her greatest skill she cast a ward about them
//to blur vision, and muffled sounds with another thought.
Коли все було сказано і все було зроблено, Мінерва пішла до місця де стояв
Гаррі Поттер. Хоч це й не було її кращим умінням, вона встановила чари, що не
давали нікому їх бачити, і заглушила всі звуки наступною думкою.

// 16682
//“You, you didn’t have to -” said Harry Potter. “You shouldn’t have said -” He
//sounded like he was choking. “P-Professor, everything I said to you was
//hurtful, and hateful, and wrong -”
-- Ви не мусили... -- почав Гаррі Поттер, -- Ви не мусили того казати... -- він
звучав начебто він задихався. -- П-професорко, все, що я вам наговорив, було
болючим, сповненим ненависті і неправильним...

// 16683
//“I already knew that, Harry,” she said. “Even so, I wished to do better.” There
//was a feeling of lightness in her chest, much as one might experience after
//stepping off a cliff, when your legs no longer had to hold your body upright.
//She wasn’t sure she could do this, she did not know the way; and yet for the
//first time it seemed possible that Hogwarts wouldn’t become a sad ghost of its
//former self, when she became its Headmistress.
-- Я знала це, Гаррі, -- мовила вона. -- Незважаючи на це, я мала б діяти
краще.

У її грудях було якесь відчуття легкості: наче зістрибнула зі скелі, і
твої ноги більше не мають тримати твоє тіло прямо. Вона не була впевнена, що
зможе це зробити, вона не знала шляху, і все ж, вперше здавалося, що Гоґвортс
не стане сумною тінню себе минулого, коли вона стане директоркою.

// 16684
//Harry stared at her, then made a odd noise that sounded like it had been forced
//from his throat, and covered his face in his hands.
Гаррі витріщився на неї, потім зробив дивний звук, який начебто силою вирвався
з його горла, і закрив обличчя руками.

// 16685
//So she knelt down, and hugged him. It might go wrong, but it might also go
//right, and she would not let that uncertainty stop her; it was time she began
//to learn a Gryffindor’s courage, so that she could teach it in turn.
Вона стала на коліна й обійняла його. Це могло бути неправильним, але також
могло бути й правильним, і вона не дала цій невизначеності спинити себе.
Настав час їй навчатися ґрифіндорської хоробрості, щоб вона потім змогла
навчати інших.

// 16686
//“I had a sister once,” she whispered. Just that, and nothing more.
-- Колись у мене була сестра, -- прошепотіла вона. Тільки це, нічого більше.

***

// 16687
//__Just to make sure,__ said some part of Harry, while the rest of him
//sobbed into Professor McGonagall’s arms, __this doesn’t mean we’ve
//accepted Hermione’s death, right?__
__Просто, щоб бути певним__, промовила якась частина Гаррі, поки решта його
хлипала в руки професорки Макґонеґел, __це ж не значить, що ми прийняли
смерть Герміони, адже ні?__

// 16688
//__NO__ said all the rest of him, every part of his mind in unanimous
//agreement, warmth and cold and a hidden place of steel. __Never, ever,
//forever.__
// hedrok: невеличке дослідження про "hidden place of steel":
// Варто прочитати 052:9278 52:9451 075:13306, можливо 110:18716
// Майже завжди йдеться про впевненість Гаррі в тому, що людство зрештою
// переможе. Відповідно, згадується коли він бореться зі впливом дементорів.
// Найбільш релевантне, напевно, 075:133066:
// "In Harry’s voice was a touch of the steel he had acquired since the day
// Fawkes had been on his shoulder.
__НІ!__ підтвердила решта його, кожна частинка його розуму в одностайній згоді
-- і тепла, і холодна, і прихована незламна сталь. __Ніколи-ніколи, до кінця
днів.__
//! kabakchey: Щось я не догнав про тепло-холод-сталь.
//! hedrok: warmth - теплий!Гарі -- "нормальний", якщо можна так назвати щось
//!         про цього Гаррі. холодний!Гаррі -- його темна сторона, точніше він,
//!         коли занурюється в темну сторону.
//!         З "hidden place of steel" -- значно складніше. Вище навів
//!         дослідження, яке варто залишити.

***

// 16689
//And an ancient wizard to whom that ward meant nothing gazed upon them both, the
//witch and the weeping young wizard. Albus Dumbledore was smiling with a strange
//sad look in his eyes, like someone who has taken one more step toward a
//foreseen destination.
І древній чаклун, якому ті чари не могли перешкодити, споглядав їх
обох: відьму та плачучого молодого чарівника. Албус Дамблдор усміхався з дивним
сумним поглядом, наче хтось, хто щойно пройшов крок до наміченої цілі.

***

// 16690
//The Defense Professor watched them both, the woman and the crying boy. His eyes
//were very cold, and very calculating.
Професор захисту спостерігав за ними обома: жінкою та хлопчиком, що плакав.
Його погляд був дуже холодним та дуже замисленим.

// 16691
//He did not think that this would be enough.
Він знав, що цього буде замало.

***

// 16692
//It wasn’t until the next morning that it was discovered that Hermione Granger’s
//body was missing.
І тільки наступного ранку виявилося, що тіло Герміони Ґрейнджер зникло.
