<?xml version="1.0" encoding="UTF-8"?>
<svg width="80px" height="93px" viewBox="0 0 80 93" version="1.1" xmlns="http://www.w3.org/2000/svg" xmlns:xlink="http://www.w3.org/1999/xlink">
    <title>hexagon</title>
    <g id="Page-1" stroke="none" stroke-width="1" fill="none" fill-rule="evenodd">
        <g id="MOCKUP_ALL" transform="translate(-2098.000000, -3505.000000)" fill="#000000" fill-rule="nonzero">
            <g id="Group" transform="translate(1370.000000, 3505.000000)">
                <path d="M768,0 L808,23.25 L808,69.75 L768,93 L728,69.75 L728,23.25 L768,0 Z M768.000838,11.4657534 L738.15873,28.824052 L738.15873,63.5389617 L768.000838,80.8972603 L797.84127,63.5389617 L797.84127,28.824052 L768.000838,11.4657534 Z" id="hexagon"></path>
            </g>
        </g>
    </g>
</svg>