<?xml version="1.0" encoding="UTF-8"?>
<svg width="73px" height="73px" viewBox="0 0 73 73" version="1.1" xmlns="http://www.w3.org/2000/svg" xmlns:xlink="http://www.w3.org/1999/xlink">
    <title>line</title>
    <g id="Page-1" stroke="none" stroke-width="1" fill="none" fill-rule="evenodd">
        <g id="MOCKUP_ALL" transform="translate(-1459.000000, -3515.000000)" fill="#000000" fill-rule="nonzero">
            <g id="Group" transform="translate(1370.000000, 3505.000000)">
                <polygon id="line" points="96.1622076 10 162 75.8377924 154.837792 83 89 17.1622076"></polygon>
            </g>
        </g>
    </g>
</svg>